Image,PositiveTangentAverage,NegativeTangentAverage,PositiveTangentFraction,ConvexPointFraction,Label
../dataset/2169pe4.jpg,0.2137851048,-0.1809679632,0.6148967552,0.5921652554,0
../dataset/680465bea610ec6946ecd1fe91874e3c.jpg,0.3369334872,-0.282143174,0.6268924814,0.9996251874,1
../dataset/6ebef5e7960167a8e55e2e44852b111d.jpg,0.6763735178,-0.7491856275,0.5662871833,0.969651635,1
../dataset/angryletterkidwedding.jpg,0.1854805022,-0.2031078974,0.4742987518,0.890569395,1
../dataset/cb4d50f41182ce340a005366461a3584.jpg,1.0210652162,-0.7990418034,0.5222180023,0.9561777237,1
../dataset/fella.jpg,0.1909479214,-0.2281753073,0.4005046864,0.8797422179,1
../dataset/hanging_loose.jpg,0.2411880799,-0.2505565555,0.4026012415,0.9998428661,1
../dataset/hoog.jpg,0.5606765449,-0.4578621825,0.4547707559,0.8756756757,1
../dataset/images (1).jpg,0.2144947843,-0.2181983827,0.5278695293,0.6962739438,0
../dataset/images (10).jpg,0.19349164,-0.2294055686,0.4060752889,0.791064389,1
../dataset/images (11).jpg,0.3680410606,-0.2516792586,0.5820765661,0.7603545253,1
../dataset/images (12).jpg,0.2879777005,-0.3314722578,0.3405063291,0.9523245985,1
../dataset/images (13).jpg,0.24538316,-0.3888582973,0.5593138048,0.9712578997,0
../dataset/images (14).jpg,0.1955443648,-0.224583966,0.3986471743,0.7797478875,1
../dataset/images (15).jpg,0.2755325893,-0.2290809766,0.6682490924,0.7881086,0
../dataset/images (16).jpg,0.1987061234,-0.3438361297,0.2497885537,0.8720188109,1
../dataset/images (19).jpg,0.3308861759,-0.3387260302,0.4776007498,0.9121380846,1
../dataset/images (2).jpg,0.343175084,-0.2984543586,0.570432357,0.9873719658,0
../dataset/images (20).jpg,0.6253208966,-0.6077168923,0.4829075207,0.7949382224,1
../dataset/images (21).jpg,0.4004511742,-0.5066044665,0.4955914769,0.8217630444,1
../dataset/images (22).jpg,0.1825831541,-0.1736031195,0.5643357969,0.8559866962,0
../dataset/images (23).jpg,0.7531455528,-0.4906516838,0.2833333333,0.7783648498,1
../dataset/images (24).jpg,0.3133889881,-0.4072126803,0.4917293233,0.6974737031,1
../dataset/images (25).jpg,0.504930198,-0.3709997246,0.5350109409,0.8635143506,1
../dataset/images (26).jpg,4.0545336099,-1.0127297994,0.2960451977,0.7398773006,1
../dataset/images (27).jpg,0.4159236991,-0.6110526492,0.3240538004,0.754282339,1
../dataset/images (28).jpg,0.369081199,-0.3422880154,0.6048344719,0.9561797753,0
../dataset/images (29).jpg,0.3564945673,-0.3338390404,0.3333333333,0.8116118555,1
../dataset/images (3).jpg,0.231721895,-0.2054566865,0.5738636364,0.9148139996,0
../dataset/images (31).jpg,0.2892122229,-0.2467670491,0.5284516983,0.9771309771,0
../dataset/images (32).jpg,0.451787091,-0.3936911458,0.5030177292,0.9802073516,0
../dataset/images (4).jpg,0.166672003,-0.1448184957,0.5554742746,0.8969551006,0
../dataset/images (5).jpg,0.4873923947,-0.3343997437,0.6682789198,0.594136418,0
../dataset/images (6).jpg,0.18160417,-0.237347969,0.5658024286,0.8817717767,0
../dataset/images.jpg,0.2747257285,-0.2303376983,0.6578947368,0.8000600871,1
../dataset/IMG_20170318_170804.JPG,0.528804378,-0.8620986226,0.3192360164,0.4599499374,1
../dataset/IMG_20170318_170829.JPG,0.3134163706,-0.4599608724,0.6792279412,0.4750561798,0
../dataset/IMG_20170318_170951.JPG,0.3428580789,-0.4903995465,0.371540397,0.6283444138,1
../dataset/IMG_20170318_171025.JPG,0.2584448498,-0.2676043776,0.5420685068,0.664317358,0
../dataset/IMG_20170318_171103.JPG,0.2074247421,-0.1991381956,0.4941547597,0.5463427874,1
../dataset/IMG_20170318_171121.JPG,0.2065365009,-0.174569737,0.6091317883,0.7475900059,0
../dataset/p03fyf58.jpg,0.4449216829,-0.2643951663,0.6536144578,0.9959339871,0
../dataset/page36_6 (1).jpg,0.2235651537,-0.2018169985,0.5764590805,0.9615468173,0
../dataset/right-slant.jpg,0.1451481053,-0.1660996131,0.4394866732,0.9674361088,1
../dataset/right-slant1.jpg,0.3447250194,-0.3281723579,0.3313373253,0.9203090059,1
../dataset/Thank you to ER.JPG,0.3339068736,-0.3124294221,0.5140884493,0.981421752,1
../dataset/unnamed.jpg,0.3598406043,-0.3271938096,0.3342726312,0.8117214621,1
../dataset/USA-WD-Strategic1-p274.jpg,0.6503474159,-0.4714556733,0.5444191344,0.9909774436,0
../dataset/images (18).jpg,0.4067346317,-0.3045373047,0.509491733,1,1
../dataset/images (9) (another copy).jpg,0.2050709726,-0.2111062707,0.5036328872,0.54812648,1
../dataset/images (9).jpg,0.2117349927,-0.1819863561,0.610139236,0.7534274194,0
../dataset/images (9) (copy).jpg,0.3041682887,-0.3205356513,0.5742325113,0.9827169671,1
../dataset/images (8).jpg,0.241589267,-0.2664568692,0.3387790198,0.6948474237,1
../dataset/images (7).jpg,0.1651814825,-0.1937997873,0.639107069,0.7156950673,0
../dataset/images (30) (copy).jpg,0.1562454947,-0.2017294852,0.3339575531,0.5936296815,1
../dataset/unnamed (1).jpg,0.1311597607,-0.1367580893,0.6586994728,0.9592549476,0
../dataset/Nelsonright.jpg,0.3817960051,-0.4186105131,0.4906987296,0.9988662132,1
../dataset/2169pe4.jpg,0.2137851048,-0.1809679632,0.6148967552,0.5921652554,0
../dataset/680465bea610ec6946ecd1fe91874e3c.jpg,0.3369334872,-0.282143174,0.6268924814,0.9996251874,1
../dataset/6ebef5e7960167a8e55e2e44852b111d.jpg,0.6763735178,-0.7491856275,0.5662871833,0.969651635,1
../dataset/angryletterkidwedding.jpg,0.1854805022,-0.2031078974,0.4742987518,0.890569395,1
../dataset/cb4d50f41182ce340a005366461a3584.jpg,1.0210652162,-0.7990418034,0.5222180023,0.9561777237,1
../dataset/fella.jpg,0.1909479214,-0.2281753073,0.4005046864,0.8797422179,1
../dataset/hanging_loose.jpg,0.2411880799,-0.2505565555,0.4026012415,0.9998428661,1
../dataset/hoog.jpg,0.5606765449,-0.4578621825,0.4547707559,0.8756756757,1
../dataset/images (1).jpg,0.2144947843,-0.2181983827,0.5278695293,0.6962739438,0
../dataset/images (10).jpg,0.19349164,-0.2294055686,0.4060752889,0.791064389,1
../dataset/images (11).jpg,0.3680410606,-0.2516792586,0.5820765661,0.7603545253,1
../dataset/images (12).jpg,0.2879777005,-0.3314722578,0.3405063291,0.9523245985,1
../dataset/images (13).jpg,0.24538316,-0.3888582973,0.5593138048,0.9712578997,0
../dataset/images (14).jpg,0.1955443648,-0.224583966,0.3986471743,0.7797478875,1
../dataset/images (15).jpg,0.2755325893,-0.2290809766,0.6682490924,0.7881086,0
../dataset/images (16).jpg,0.1987061234,-0.3438361297,0.2497885537,0.8720188109,1
../dataset/images (19).jpg,0.3308861759,-0.3387260302,0.4776007498,0.9121380846,1
../dataset/images (2).jpg,0.343175084,-0.2984543586,0.570432357,0.9873719658,0
../dataset/images (20).jpg,0.6253208966,-0.6077168923,0.4829075207,0.7949382224,1
../dataset/images (21).jpg,0.4004511742,-0.5066044665,0.4955914769,0.8217630444,1
../dataset/images (22).jpg,0.1825831541,-0.1736031195,0.5643357969,0.8559866962,0
../dataset/images (23).jpg,0.7531455528,-0.4906516838,0.2833333333,0.7783648498,1
../dataset/images (24).jpg,0.3133889881,-0.4072126803,0.4917293233,0.6974737031,1
../dataset/images (25).jpg,0.504930198,-0.3709997246,0.5350109409,0.8635143506,1
../dataset/images (26).jpg,4.0545336099,-1.0127297994,0.2960451977,0.7398773006,1
../dataset/images (27).jpg,0.4159236991,-0.6110526492,0.3240538004,0.754282339,1
../dataset/images (28).jpg,0.369081199,-0.3422880154,0.6048344719,0.9561797753,0
../dataset/images (29).jpg,0.3564945673,-0.3338390404,0.3333333333,0.8116118555,1
../dataset/images (3).jpg,0.231721895,-0.2054566865,0.5738636364,0.9148139996,0
../dataset/images (31).jpg,0.2892122229,-0.2467670491,0.5284516983,0.9771309771,0
../dataset/images (32).jpg,0.451787091,-0.3936911458,0.5030177292,0.9802073516,0
../dataset/images (4).jpg,0.166672003,-0.1448184957,0.5554742746,0.8969551006,0
../dataset/images (5).jpg,0.4873923947,-0.3343997437,0.6682789198,0.594136418,0
../dataset/images (6).jpg,0.18160417,-0.237347969,0.5658024286,0.8817717767,0
../dataset/images.jpg,0.2747257285,-0.2303376983,0.6578947368,0.8000600871,1
../dataset/IMG_20170318_170804.JPG,0.528804378,-0.8620986226,0.3192360164,0.4599499374,1
../dataset/IMG_20170318_170829.JPG,0.3134163706,-0.4599608724,0.6792279412,0.4750561798,0
../dataset/IMG_20170318_170951.JPG,0.3428580789,-0.4903995465,0.371540397,0.6283444138,1
../dataset/IMG_20170318_171025.JPG,0.2584448498,-0.2676043776,0.5420685068,0.664317358,0
../dataset/IMG_20170318_171103.JPG,0.2074247421,-0.1991381956,0.4941547597,0.5463427874,1
../dataset/IMG_20170318_171121.JPG,0.2065365009,-0.174569737,0.6091317883,0.7475900059,0
../dataset/p03fyf58.jpg,0.4449216829,-0.2643951663,0.6536144578,0.9959339871,0
../dataset/page36_6 (1).jpg,0.2235651537,-0.2018169985,0.5764590805,0.9615468173,0
../dataset/right-slant.jpg,0.1451481053,-0.1660996131,0.4394866732,0.9674361088,1
../dataset/right-slant1.jpg,0.3447250194,-0.3281723579,0.3313373253,0.9203090059,1
../dataset/Thank you to ER.JPG,0.3339068736,-0.3124294221,0.5140884493,0.981421752,1
../dataset/unnamed.jpg,0.3598406043,-0.3271938096,0.3342726312,0.8117214621,1
../dataset/USA-WD-Strategic1-p274.jpg,0.6503474159,-0.4714556733,0.5444191344,0.9909774436,0
../dataset/images (18).jpg,0.4067346317,-0.3045373047,0.509491733,1,1
../dataset/images (9) (another copy).jpg,0.2050709726,-0.2111062707,0.5036328872,0.54812648,1
../dataset/images (9).jpg,0.2117349927,-0.1819863561,0.610139236,0.7534274194,0
../dataset/images (9) (copy).jpg,0.3041682887,-0.3205356513,0.5742325113,0.9827169671,1
../dataset/images (8).jpg,0.241589267,-0.2664568692,0.3387790198,0.6948474237,1
../dataset/images (7).jpg,0.1651814825,-0.1937997873,0.639107069,0.7156950673,0
../dataset/images (30) (copy).jpg,0.1562454947,-0.2017294852,0.3339575531,0.5936296815,1
../dataset/unnamed (1).jpg,0.1311597607,-0.1367580893,0.6586994728,0.9592549476,0
../dataset/Nelsonright.jpg,0.3817960051,-0.4186105131,0.4906987296,0.9988662132,1
